<?xml version="1.0" encoding="utf-8"?>
<!-- Generator: Adobe Illustrator 22.1.0, SVG Export Plug-In . SVG Version: 6.00 Build 0)  -->
<svg version="1.1" id="Layer_1" xmlns="http://www.w3.org/2000/svg" xmlns:xlink="http://www.w3.org/1999/xlink" x="0px" y="0px"
	 viewBox="0 0 31.4 27.9" style="enable-background:new 0 0 31.4 27.9;" xml:space="preserve">
<style type="text/css">
	.st0{fill:none;stroke:#808285;stroke-miterlimit:10;}
	.st1{fill:none;stroke:#808285;stroke-linecap:round;stroke-miterlimit:10;}
</style>
<g>
	<path class="st0" d="M30.2,18.8c0,1.6-1.3,2.8-2.8,2.8H9.8c-1.6,0-2.8-1.3-2.8-2.8V7.2c0-1.6,1.3-2.8,2.8-2.8h17.6
		c1.6,0,2.8,1.3,2.8,2.8V18.8z"/>
</g>
<g>
	<path class="st0" d="M23.2,1.9c0-0.8-0.6-1.4-1.4-1.4h-6.5c-0.8,0-1.4,0.6-1.4,1.4V3c0,0.8,0.6,1.4,1.4,1.4h6.5
		c0.8,0,1.4-0.6,1.4-1.4V1.9z"/>
</g>
<line class="st0" x1="11.5" y1="4.2" x2="11.5" y2="21.6"/>
<line class="st0" x1="25.6" y1="4.5" x2="25.6" y2="21.9"/>
<path class="st1" d="M0.5,4.8h2c0,0,1.8,0.3,1.8,2.7c0,2.4,0,13.2,0,13.2s-0.2,3.1,3,3.1c3.5,0,23.6,0,23.6,0"/>
<circle class="st1" cx="10.1" cy="25.8" r="1.6"/>
<circle class="st1" cx="27" cy="25.8" r="1.6"/>
</svg>
